{
  "$schema": "./node_modules/@angular/cli/lib/config/schema.json",
  "version": 1,
  "newProjectRoot": "projects",
  "projects": {
    "eduncle-blog": {
      "root": "",
      "sourceRoot": "src",
      "projectType": "application",
      "prefix": "app",
      "schematics": {},
      "architect": {
        "build": {
          "builder": "@angular-devkit/build-angular:browser",
          "options": {
            "aot": true,
            "outputPath": "dist/browser",
            "index": "src/index.html",
            "main": "src/main.ts",
            "polyfills": "src/polyfills.ts",
            "tsConfig": "src/tsconfig.app.json",
            "assets": [
              "src/favicon.ico",
              "src/assets"
            ],
            "styles": [
              "src/styles.css"
            ],
            "scripts": [
              "node_modules/jquery/dist/jquery.min.js",
              "src/assets/js/popper.min.js",
              "src/assets/js/bootstrap.min.js",
              "src/assets/js/audience.js"
            ]
          },
          "configurations": {
            "production": {
              "budgets": [
                {
                  "type": "anyComponentStyle",
                  "maximumWarning": "6kb"
                }
              ],
              "fileReplacements": [
                {
                  "replace": "src/environments/environment.ts",
                  "with": "src/environments/environment.prod.ts"
                }
              ],
              "optimization": true,
              "outputHashing": "all",
              "sourceMap": false,
              "extractCss": true,
              "namedChunks": false,
              "aot": true,
              "extractLicenses": true,
              "vendorChunk": false,
              "buildOptimizer": true
            }
          }
        },
        "serve": {
          "builder": "@angular-devkit/build-angular:dev-server",
          "options": {
            "browserTarget": "eduncle-blog:build"
          },
          "configurations": {
            "production": {
              "browserTarget": "eduncle-blog:build:production"
            }
          }
        },
        "extract-i18n": {
          "builder": "@angular-devkit/build-angular:extract-i18n",
          "options": {
            "browserTarget": "eduncle-blog:build"
          }
        },
        "test": {
          "builder": "@angular-devkit/build-angular:karma",
          "options": {
            "main": "src/test.ts",
            "polyfills": "src/polyfills.ts",
            "tsConfig": "src/tsconfig.spec.json",
            "karmaConfig": "src/karma.conf.js",
            "styles": [
              "src/styles.css"
            ],
            "scripts": [],
            "assets": [
              "src/favicon.ico",
              "src/assets"
            ]
          }
        },
        "lint": {
          "builder": "@angular-devkit/build-angular:tslint",
          "options": {
            "tsConfig": [
              "src/tsconfig.app.json",
              "src/tsconfig.spec.json"
            ],
            "exclude": [
              "**/node_modules/**"
            ]
          }
        },
        "server": {
          "builder": "@angular-devkit/build-angular:server",
          "options": {
            "outputPath": "dist/server",
            "main": "server.ts",
            "tsConfig": "src/tsconfig.server.json"
          },
          "configurations": {
            "production": {
              "outputHashing": "media",
              "fileReplacements": [
                {
                  "replace": "src/environments/environment.ts",
                  "with": "src/environments/environment.prod.ts"
                }
              ],
              "sourceMap": false,
              "optimization": true
            }
          }
        },
        "serve-ssr": {
          "builder": "@nguniversal/builders:ssr-dev-server",
          "options": {
            "browserTarget": "eduncle-blog:build",
            "serverTarget": "eduncle-blog:server"
          },
          "configurations": {
            "production": {
              "browserTarget": "eduncle-blog:build:production",
              "serverTarget": "eduncle-blog:server:production"
            }
          }
        },
        "prerender": {
          "builder": "@nguniversal/builders:prerender",
          "options": {
            "browserTarget": "eduncle-blog:build:production",
            "serverTarget": "eduncle-blog:server:production",
            "routes": [
              "/"
            ]
          },
          "configurations": {
            "production": {}
          }
        }
      }
    },
    "eduncle-blog-e2e": {
      "root": "e2e/",
      "projectType": "application",
      "architect": {
        "e2e": {
          "builder": "@angular-devkit/build-angular:protractor",
          "options": {
            "protractorConfig": "e2e/protractor.conf.js",
            "devServerTarget": "eduncle-blog:serve"
          },
          "configurations": {
            "production": {
              "devServerTarget": "eduncle-blog:serve:production"
            }
          }
        },
        "lint": {
          "builder": "@angular-devkit/build-angular:tslint",
          "options": {
            "tsConfig": "e2e/tsconfig.e2e.json",
            "exclude": [
              "**/node_modules/**"
            ]
          }
        }
      }
    }
  },
  "defaultProject": "eduncle-blog"
}